Complete RISCV/CompleteRISCV.sim/sim_1/behav/xsim/simulate.log
Vivado Simulator 2018.2
Time resolution is 1 ps
clk = 0, U=1, V= 0,W =          0, X =  104858259, Y =          0, Z=        100
clk = 1, U=1, V= 0,W =          4, X =      33043, Y =          0, Z=          0
clk = 0, U=1, V= 0,W =          4, X =      33043, Y =          0, Z=          0
clk = 1, U=1, V= 0,W =          8, X =    1114515, Y =          0, Z=          1
clk = 0, U=1, V= 0,W =          8, X =    1114515, Y =          0, Z=          1
clk = 1, U=1, V= 0,W =         12, X =      66067, Y =          0, Z=          0
clk = 0, U=1, V= 0,W =         12, X =      66067, Y =          0, Z=          0
clk = 1, U=1, V= 0,W =         16, X =    2195891, Y =          0, Z=          0
clk = 0, U=1, V= 0,W =         16, X =    2195891, Y =          0, Z=          0
clk = 1, U=0, V= 0,W =         20, X = 4266809571, Y =          0, Z= 4294967280
clk = 0, U=0, V= 0,W =         20, X = 4266809571, Y =          0, Z= 4294967280
clk = 1, U=1, V= 0,W =         24, X =    3211571, Y =          0, Z=          1
clk = 0, U=1, V= 0,W =         24, X =    3211571, Y =          0, Z=          1
clk = 1, U=1, V= 1,W =         28, X = 1076953523, Y =          0, Z=          1
clk = 0, U=1, V= 1,W =         28, X = 1076953523, Y =          0, Z=          1
clk = 1, U=1, V= 1,W =         32, X = 1076953395, Y =          0, Z=          0
clk = 0, U=1, V= 1,W =         32, X = 1076953395, Y =          0, Z=          0
clk = 1, U=1, V= 0,W =         36, X = 4271895407, Y =          0, Z= 4294967272
clk = 0, U=1, V= 0,W =         36, X = 4271895407, Y =          0, Z= 4294967272
clk = 1, U=1, V= 0,W =         12, X =      66067, Y =          0, Z=          0
clk = 0, U=1, V= 0,W =         12, X =      66067, Y =          0, Z=          0
clk = 1, U=1, V= 0,W =         16, X =    2195891, Y =          1, Z=          1
clk = 0, U=1, V= 0,W =         16, X =    2195891, Y =          1, Z=          1
clk = 1, U=0, V= 0,W =         20, X = 4266809571, Y =          1, Z= 4294967280
clk = 0, U=0, V= 0,W =         20, X = 4266809571, Y =          1, Z= 4294967280
clk = 1, U=1, V= 0,W =         24, X =    3211571, Y =          1, Z=          1
clk = 0, U=1, V= 0,W =         24, X =    3211571, Y =          1, Z=          1
clk = 1, U=1, V= 1,W =         28, X = 1076953523, Y =          1, Z=          1
clk = 0, U=1, V= 1,W =         28, X = 1076953523, Y =          1, Z=          1
clk = 1, U=1, V= 1,W =         32, X = 1076953395, Y =          1, Z=          1
clk = 0, U=1, V= 1,W =         32, X = 1076953395, Y =          1, Z=          1
clk = 1, U=1, V= 0,W =         36, X = 4271895407, Y =          1, Z= 4294967272
clk = 0, U=1, V= 0,W =         36, X = 4271895407, Y =          1, Z= 4294967272
clk = 1, U=1, V= 0,W =         12, X =      66067, Y =          1, Z=          0
clk = 0, U=1, V= 0,W =         12, X =      66067, Y =          1, Z=          0
clk = 1, U=1, V= 0,W =         16, X =    2195891, Y =          1, Z=          1
clk = 0, U=1, V= 0,W =         16, X =    2195891, Y =          1, Z=          1
clk = 1, U=0, V= 0,W =         20, X = 4266809571, Y =          1, Z= 4294967280
clk = 0, U=0, V= 0,W =         20, X = 4266809571, Y =          1, Z= 4294967280
clk = 1, U=1, V= 0,W =         24, X =    3211571, Y =          1, Z=          2
clk = 0, U=1, V= 0,W =         24, X =    3211571, Y =          1, Z=          2
clk = 1, U=1, V= 1,W =         28, X = 1076953523, Y =          1, Z=          2
clk = 0, U=1, V= 1,W =         28, X = 1076953523, Y =          1, Z=          2
clk = 1, U=1, V= 1,W =         32, X = 1076953395, Y =          1, Z=          1
clk = 0, U=1, V= 1,W =         32, X = 1076953395, Y =          1, Z=          1
clk = 1, U=1, V= 0,W =         36, X = 4271895407, Y =          1, Z= 4294967272
clk = 0, U=1, V= 0,W =         36, X = 4271895407, Y =          1, Z= 4294967272
clk = 1, U=1, V= 0,W =         12, X =      66067, Y =          1, Z=          0
clk = 0, U=1, V= 0,W =         12, X =      66067, Y =          1, Z=          0
clk = 1, U=1, V= 0,W =         16, X =    2195891, Y =          2, Z=          2
clk = 0, U=1, V= 0,W =         16, X =    2195891, Y =          2, Z=          2
clk = 1, U=0, V= 0,W =         20, X = 4266809571, Y =          2, Z= 4294967280
clk = 0, U=0, V= 0,W =         20, X = 4266809571, Y =          2, Z= 4294967280
clk = 1, U=1, V= 0,W =         24, X =    3211571, Y =          2, Z=          3
clk = 0, U=1, V= 0,W =         24, X =    3211571, Y =          2, Z=          3
clk = 1, U=1, V= 1,W =         28, X = 1076953523, Y =          2, Z=          3
clk = 0, U=1, V= 1,W =         28, X = 1076953523, Y =          2, Z=          3
clk = 1, U=1, V= 1,W =         32, X = 1076953395, Y =          2, Z=          2
clk = 0, U=1, V= 1,W =         32, X = 1076953395, Y =          2, Z=          2
clk = 1, U=1, V= 0,W =         36, X = 4271895407, Y =          2, Z= 4294967272
clk = 0, U=1, V= 0,W =         36, X = 4271895407, Y =          2, Z= 4294967272
clk = 1, U=1, V= 0,W =         12, X =      66067, Y =          2, Z=          0
clk = 0, U=1, V= 0,W =         12, X =      66067, Y =          2, Z=          0
clk = 1, U=1, V= 0,W =         16, X =    2195891, Y =          3, Z=          3
clk = 0, U=1, V= 0,W =         16, X =    2195891, Y =          3, Z=          3
clk = 1, U=0, V= 0,W =         20, X = 4266809571, Y =          3, Z= 4294967280
clk = 0, U=0, V= 0,W =         20, X = 4266809571, Y =          3, Z= 4294967280
clk = 1, U=1, V= 0,W =         24, X =    3211571, Y =          3, Z=          5
clk = 0, U=1, V= 0,W =         24, X =    3211571, Y =          3, Z=          5
clk = 1, U=1, V= 1,W =         28, X = 1076953523, Y =          3, Z=          5
clk = 0, U=1, V= 1,W =         28, X = 1076953523, Y =          3, Z=          5
clk = 1, U=1, V= 1,W =         32, X = 1076953395, Y =          3, Z=          3
clk = 0, U=1, V= 1,W =         32, X = 1076953395, Y =          3, Z=          3
clk = 1, U=1, V= 0,W =         36, X = 4271895407, Y =          3, Z= 4294967272
clk = 0, U=1, V= 0,W =         36, X = 4271895407, Y =          3, Z= 4294967272
clk = 1, U=1, V= 0,W =         12, X =      66067, Y =          3, Z=          0
clk = 0, U=1, V= 0,W =         12, X =      66067, Y =          3, Z=          0
clk = 1, U=1, V= 0,W =         16, X =    2195891, Y =          5, Z=          5
clk = 0, U=1, V= 0,W =         16, X =    2195891, Y =          5, Z=          5
clk = 1, U=0, V= 0,W =         20, X = 4266809571, Y =          5, Z= 4294967280
clk = 0, U=0, V= 0,W =         20, X = 4266809571, Y =          5, Z= 4294967280
clk = 1, U=1, V= 0,W =         24, X =    3211571, Y =          5, Z=          8
clk = 0, U=1, V= 0,W =         24, X =    3211571, Y =          5, Z=          8
clk = 1, U=1, V= 1,W =         28, X = 1076953523, Y =          5, Z=          8
clk = 0, U=1, V= 1,W =         28, X = 1076953523, Y =          5, Z=          8
clk = 1, U=1, V= 1,W =         32, X = 1076953395, Y =          5, Z=          5
clk = 0, U=1, V= 1,W =         32, X = 1076953395, Y =          5, Z=          5
clk = 1, U=1, V= 0,W =         36, X = 4271895407, Y =          5, Z= 4294967272
clk = 0, U=1, V= 0,W =         36, X = 4271895407, Y =          5, Z= 4294967272
clk = 1, U=1, V= 0,W =         12, X =      66067, Y =          5, Z=          0
clk = 0, U=1, V= 0,W =         12, X =      66067, Y =          5, Z=          0
clk = 1, U=1, V= 0,W =         16, X =    2195891, Y =          8, Z=          8
clk = 0, U=1, V= 0,W =         16, X =    2195891, Y =          8, Z=          8
clk = 1, U=0, V= 0,W =         20, X = 4266809571, Y =          8, Z= 4294967280
clk = 0, U=0, V= 0,W =         20, X = 4266809571, Y =          8, Z= 4294967280
clk = 1, U=1, V= 0,W =         24, X =    3211571, Y =          8, Z=         13
clk = 0, U=1, V= 0,W =         24, X =    3211571, Y =          8, Z=         13
clk = 1, U=1, V= 1,W =         28, X = 1076953523, Y =          8, Z=         13
clk = 0, U=1, V= 1,W =         28, X = 1076953523, Y =          8, Z=         13
clk = 1, U=1, V= 1,W =         32, X = 1076953395, Y =          8, Z=          8
clk = 0, U=1, V= 1,W =         32, X = 1076953395, Y =          8, Z=          8
clk = 1, U=1, V= 0,W =         36, X = 4271895407, Y =          8, Z= 4294967272
clk = 0, U=1, V= 0,W =         36, X = 4271895407, Y =          8, Z= 4294967272
clk = 1, U=1, V= 0,W =         12, X =      66067, Y =          8, Z=          0
clk = 0, U=1, V= 0,W =         12, X =      66067, Y =          8, Z=          0
clk = 1, U=1, V= 0,W =         16, X =    2195891, Y =         13, Z=         13
clk = 0, U=1, V= 0,W =         16, X =    2195891, Y =         13, Z=         13
clk = 1, U=0, V= 0,W =         20, X = 4266809571, Y =         13, Z= 4294967280
clk = 0, U=0, V= 0,W =         20, X = 4266809571, Y =         13, Z= 4294967280
clk = 1, U=1, V= 0,W =         24, X =    3211571, Y =         13, Z=         21
clk = 0, U=1, V= 0,W =         24, X =    3211571, Y =         13, Z=         21
clk = 1, U=1, V= 1,W =         28, X = 1076953523, Y =         13, Z=         21
clk = 0, U=1, V= 1,W =         28, X = 1076953523, Y =         13, Z=         21
clk = 1, U=1, V= 1,W =         32, X = 1076953395, Y =         13, Z=         13
clk = 0, U=1, V= 1,W =         32, X = 1076953395, Y =         13, Z=         13
clk = 1, U=1, V= 0,W =         36, X = 4271895407, Y =         13, Z= 4294967272
clk = 0, U=1, V= 0,W =         36, X = 4271895407, Y =         13, Z= 4294967272
clk = 1, U=1, V= 0,W =         12, X =      66067, Y =         13, Z=          0
clk = 0, U=1, V= 0,W =         12, X =      66067, Y =         13, Z=          0
clk = 1, U=1, V= 0,W =         16, X =    2195891, Y =         21, Z=         21
clk = 0, U=1, V= 0,W =         16, X =    2195891, Y =         21, Z=         21
clk = 1, U=0, V= 0,W =         20, X = 4266809571, Y =         21, Z= 4294967280
clk = 0, U=0, V= 0,W =         20, X = 4266809571, Y =         21, Z= 4294967280
clk = 1, U=1, V= 0,W =         24, X =    3211571, Y =         21, Z=         34
clk = 0, U=1, V= 0,W =         24, X =    3211571, Y =         21, Z=         34
clk = 1, U=1, V= 1,W =         28, X = 1076953523, Y =         21, Z=         34
clk = 0, U=1, V= 1,W =         28, X = 1076953523, Y =         21, Z=         34
clk = 1, U=1, V= 1,W =         32, X = 1076953395, Y =         21, Z=         21
clk = 0, U=1, V= 1,W =         32, X = 1076953395, Y =         21, Z=         21
clk = 1, U=1, V= 0,W =         36, X = 4271895407, Y =         21, Z= 4294967272
clk = 0, U=1, V= 0,W =         36, X = 4271895407, Y =         21, Z= 4294967272
clk = 1, U=1, V= 0,W =         12, X =      66067, Y =         21, Z=          0
clk = 0, U=1, V= 0,W =         12, X =      66067, Y =         21, Z=          0
clk = 1, U=1, V= 0,W =         16, X =    2195891, Y =         34, Z=         34
clk = 0, U=1, V= 0,W =         16, X =    2195891, Y =         34, Z=         34
clk = 1, U=0, V= 0,W =         20, X = 4266809571, Y =         34, Z= 4294967280
clk = 0, U=0, V= 0,W =         20, X = 4266809571, Y =         34, Z= 4294967280
clk = 1, U=1, V= 0,W =         24, X =    3211571, Y =         34, Z=         55
clk = 0, U=1, V= 0,W =         24, X =    3211571, Y =         34, Z=         55
clk = 1, U=1, V= 1,W =         28, X = 1076953523, Y =         34, Z=         55
clk = 0, U=1, V= 1,W =         28, X = 1076953523, Y =         34, Z=         55
clk = 1, U=1, V= 1,W =         32, X = 1076953395, Y =         34, Z=         34
clk = 0, U=1, V= 1,W =         32, X = 1076953395, Y =         34, Z=         34
clk = 1, U=1, V= 0,W =         36, X = 4271895407, Y =         34, Z= 4294967272
clk = 0, U=1, V= 0,W =         36, X = 4271895407, Y =         34, Z= 4294967272
clk = 1, U=1, V= 0,W =         12, X =      66067, Y =         34, Z=          0
clk = 0, U=1, V= 0,W =         12, X =      66067, Y =         34, Z=          0
clk = 1, U=1, V= 0,W =         16, X =    2195891, Y =         55, Z=         55
clk = 0, U=1, V= 0,W =         16, X =    2195891, Y =         55, Z=         55
clk = 1, U=0, V= 0,W =         20, X = 4266809571, Y =         55, Z= 4294967280
clk = 0, U=0, V= 0,W =         20, X = 4266809571, Y =         55, Z= 4294967280
clk = 1, 